task4/fs_fsm.vcd
$version Generated by VerilatedVcd $end
$date Tue Jun 20 14:33:32 2023 $end
$timescale 1ps $end

 $scope module TOP $end
  $var wire 16 0 N [15:0] $end
  $var wire  1 - clk $end
  $var wire  8 1 data_out [7:0] $end
  $var wire  1 . rst $end
  $var wire  1 2 time_out $end
  $var wire  1 / trigger $end
  $scope module f1full $end
   $var wire 16 0 N [15:0] $end
   $var wire 32 3 WIDTH [31:0] $end
   $var wire  1 - clk $end
   $var wire  1 % cmd_delay $end
   $var wire  1 $ cmd_seq $end
   $var wire  8 1 data_out [7:0] $end
   $var wire  1 & en $end
   $var wire  1 . rst $end
   $var wire  1 # tick $end
   $var wire  1 2 time_out $end
   $var wire  1 / trigger $end
   $scope module clock $end
    $var wire 16 0 N [15:0] $end
    $var wire 32 3 WIDTH [31:0] $end
    $var wire  1 - clk $end
    $var wire 16 ' count [15:0] $end
    $var wire  1 $ en $end
    $var wire  1 . rst $end
    $var wire  1 # tick $end
   $upscope $end
   $scope module delatedtime $end
    $var wire 32 4 WIDTH [31:0] $end
    $var wire  1 - clk $end
    $var wire 10 ( count [9:0] $end
    $var wire 32 ) current_state [31:0] $end
    $var wire 10 5 n [9:0] $end
    $var wire 32 * next_state [31:0] $end
    $var wire  1 . rst $end
    $var wire  1 2 time_out $end
    $var wire  1 % trigger $end
   $upscope $end
   $scope module f1_light $end
    $var wire  1 - clk $end
    $var wire  1 % cmd_delay $end
    $var wire  1 $ cmd_seq $end
    $var wire 32 + current_state [31:0] $end
    $var wire  8 1 data_out [7:0] $end
    $var wire  1 & en $end
    $var wire 32 , next_state [31:0] $end
    $var wire  1 . rst $end
    $var wire  1 / trigger $end
   $upscope $end
  $upscope $end
 $upscope $end
$enddefinitions $end


#0
0#
0$
0%
0&
b0000000000000000 '
b0000000000 (
b00000000000000000000000000000000 )
b00000000000000000000000000000000 *
b00000000000000000000000000000000 +
b00000000000000000000000000000000 ,
1-
0.
0/
b0000000000110011 0
b00000000 1
02
b00000000000000000000000000010000 3
b00000000000000000000000000001010 4
b0000000001 5
#1
1%
b00000000000000000000000000000001 *
0-
#2
b00000000000000000000000000000001 )
b00000000000000000000000000000010 *
1-
1.
#3
0-
#4
b0000000000110011 '
b00000000000000000000000000000000 )
b00000000000000000000000000000001 *
1-
#5
0-
#6
1-
#7
0-
#8
1-
#9
0-
#10
1-
#11
0-
#12
1-
#13
0-
#14
1-
#15
0-
#16
1-
#17
0-
#18
1-
1/
#19
0-
#20
1-
0/
#21
0-
#22
1-
#23
0-
#24
1-
#25
0-
#26
1-
#27
0-
#28
1-
#29
0-
#30
1-
#31
0-
#32
1-
#33
0-
#34
1-
#35
0-
#36
1-
#37
0-
#38
1-
#39
0-
#40
1-
#41
0-
#42
1-
#43
0-
#44
1-
#45
0-
#46
1-
#47
0-
#48
1-
1/
#49
0-
#50
1-
0/
